{
  "status": "enabled",
  "name": "snam",
  "PROJECT": "igenius-private-betas",
  "backend": "crystal/snam/state",
  "cloudsql_tier": "db-custom-1-3840",
  "cloudsql_deletion_protection": "true",
  "tenant_base_endpoint": "snam.crystal.ai",
  "dataset_template_bucket": "igenius-argo-snam",
  "tenant_minio_endpoint": "nlp-minio-snam",
  "retrain_nats_endpoint": "nats://train-crystal-nats.gcp.crystal.ai:4222"
}